{
  "type": "FeatureCollection",
  "features": [
    {
      "type": "Feature",
      "geometry": {
        "type": "Point",
        "coordinates": [
          119.980582,
          -3.7732972
        ]
      },
      "properties": {
        "Id": 0,
        "skp": "SKP A"
      }
    },
    {
      "type": "Feature",
      "geometry": {
        "type": "Point",
        "coordinates": [
          120.0351071,
          -3.6433135
        ]
      },
      "properties": {
        "Id": 0,
        "skp": "SKP B"
      }
    },
    {
      "type": "Feature",
      "geometry": {
        "type": "Point",
        "coordinates": [
          120.0428846,
          -3.8290139
        ]
      },
      "properties": {
        "Id": 0,
        "skp": "SKP B"
      }
    },
    {
      "type": "Feature",
      "geometry": {
        "type": "Point",
        "coordinates": [
          120.0437507,
          -3.7705679
        ]
      },
      "properties": {
        "Id": 0,
        "skp": "KPB"
      }
    },
    {
      "type": "Feature",
      "geometry": {
        "type": "Point",
        "coordinates": [
          120.1564271,
          -3.7411259
        ]
      },
      "properties": {
        "Id": 0,
        "skp": "SKP C"
      }
    },
    {
      "type": "Feature",
      "geometry": {
        "type": "Point",
        "coordinates": [
          120.3001531,
          -3.6763353
        ]
      },
      "properties": {
        "Id": 0,
        "skp": "SKP C"
      }
    }
  ]
}