{
"type": "FeatureCollection",
"name": "SELECT",
"crs": { "type": "name", "properties": { "name": "urn:ogc:def:crs:OGC:1.3:CRS84" } },
"features": [
{ "type": "Feature", "properties": { "OBJECTID": 25969, "KODE_UNSUR": "64104", "NAMA_UNSUR": "Ibukota Provinsi", "TOPONIM": "Jayapura", "PELAKSANA": "PT. Citra Rupabumi Konsultan", "UPDATED": "20130902" }, "geometry": { "type": "Point", "coordinates": [ 140.715115583000056, -2.536226089999957 ] } }
]
}
