{
      "type": "Feature",
      "properties": {
        "Id": 0,
        "SKP": "SKP D : YURUF"
      },
      "geometry": {
        "type": "Point",
        "coordinates": [
          140.826438,
          -3.575907
        ]
      }
    }